{
  "page":196,
  "per_page":10,
  "total":1951,
  "total_pages":196,
  "data":[
    {"competition":"La Liga",
      "year":2011,
      "round":"",
      "team1":"Racing Santander",
      "team2":"CA Osasuna",
      "team1goals":"2",
      "team2goals":"4"
    }
  ]
}